{
	"type": "FeatureCollection",
	"features": [
		{
			"type": "Feature",
			"properties": {},
			"geometry": {
				"type": "Polygon",
				"coordinates": [
					[
						[-1.6912078857421875, 48.12038212299896],
						[-1.6815948486328125, 48.12038212299896],
						[-1.6815948486328125, 48.12634074841738],
						[-1.6912078857421875, 48.12634074841738],
						[-1.6912078857421875, 48.12038212299896]
					]
				]
			}
		},
		{
			"type": "Feature",
			"properties": {},
			"geometry": {
				"type": "Polygon",
				"coordinates": [
					[
						[-1.6551589965820312, 48.1265699125143],
						[-1.6656303405761719, 48.12313234369807],
						[-1.6582489013671873, 48.11614191094256],
						[-1.6331863403320312, 48.12015293129435],
						[-1.6524124145507812, 48.121871844155066],
						[-1.6551589965820312, 48.1265699125143]
					]
				]
			}
		},
		{
			"type": "Feature",
			"properties": {},
			"geometry": {
				"type": "LineString",
				"coordinates": [
					[-1.6278648376464844, 48.12714281828319],
					[-1.6374778747558594, 48.12920522613733],
					[-1.6249465942382812, 48.11751715319754],
					[-1.6415977478027344, 48.1029606392054]
				]
			}
		},
		{
			"type": "Feature",
			"properties": {},
			"geometry": {
				"type": "Polygon",
				"coordinates": [
					[
						[-1.6882896423339844, 48.08862933522144],
						[-1.6851997375488281, 48.08862933522144],
						[-1.6851997375488281, 48.10020933869085],
						[-1.6882896423339844, 48.10020933869085],
						[-1.6882896423339844, 48.08862933522144]
					]
				]
			}
		},
		{
			"type": "Feature",
			"properties": {},
			"geometry": {
				"type": "Polygon",
				"coordinates": [
					[
						[-1.6488075256347656, 48.10112645522382],
						[-1.6587638854980469, 48.10456549650346],
						[-1.6568756103515625, 48.09619676148215],
						[-1.6659736633300781, 48.10043861935797],
						[-1.6649436950683592, 48.09115193437977],
						[-1.6431427001953123, 48.0940183741334],
						[-1.6573905944824217, 48.09367440979962],
						[-1.6225433349609373, 48.097113949597365],
						[-1.6488075256347656, 48.10112645522382]
					]
				]
			}
		}
	]
}
